id,name,model_id:id,group_id:id,perm_read,perm_write,perm_create,perm_unlink
access_mrp_production_import_wizard_user,access_mrp_production_import_wizard,model_mrp_production_import_wizard,base.group_user,1,1,1,1
access_mrp_production_cut_record_detail_user,access_mrp_production_cut_record_detail,model_mrp_production_cut_record_detail,base.group_user,1,1,1,1
access_mrp_production_cut_record_daily_user,access_mrp_production_cut_record_daily,model_mrp_production_cut_record_daily,base.group_user,1,1,1,1
access_mrp_production_semi_record_detail_user,access_mrp_production_semi_record_detail,model_mrp_production_semi_record_detail,base.group_user,1,1,1,1
access_mrp_production_semi_record_daily_user,access_mrp_production_semi_record_daily,model_mrp_production_semi_record_daily,base.group_user,1,1,1,1